num,oblig1,oblig2,oblig3,cons1,cons2,cons3,cons4,cons5
1,maths4m0621,mapsi2,aagb1,il5,lrc4,,,
2,maths4m0621,mapsi4,aagb1,complex2,mogpl2,,,
3,maths4m0621,mapsi5,aagb1,bima1,lrc4,,,
4,maths4m0621,mapsi2,aagb1,il5,mogpl4,,,
5,maths4m0621,mapsi2,aagb1,il5,mogpl4,,,
6,maths4m0621,mapsi2,aagb1,il5,lrc4,,,
7,maths4m0621,mapsi4,aagb1,lrc5,mogpl3,,,
8,maths4m0621,mapsi4,aagb1,il5,lrc4,,,
9,maths4m0621,mapsi2,aagb1,bima1,complex2,,,
10,maths4m0621,mapsi2,aagb1,il5,mogpl4,,,
11,maths4m0621,mapsi2,aagb1,lrc5,mogpl2,,,
12,maths4m0621,mapsi2,aagb1,bima1,complex2,,,
13,maths4m0621,mapsi5,aagb1,il3,lrc4,,,
14,maths4m0621,mapsi5,aagb1,bima1,lrc4,,,
15,maths4m0621,mapsi3,aagb1,complex2,lrc5,,,
16,maths4m0621,mapsi2,aagb1,il5,lrc4,,,
17,maths4m0621,mapsi4,aagb1,il5,lrc4,,,
18,maths4m0621,mapsi5,aagb1,il3,lrc4,,,
19,maths4m0621,mapsi5,aagb1,il3,mogpl4,,,
20,maths4m0621,mapsi5,aagb1,complex2,il3,,,
21,maths4m0621,mapsi3,aagb1,il5,mogpl4,,,
22,maths4m0621,mapsi2,aagb1,bima1,lrc4,,,
23,maths4m0621,mapsi4,aagb1,complex2,mogpl2,,,
24,maths4m0621,mapsi5,aagb1,il3,lrc4,,,
25,maths4m0621,mapsi2,aagb1,il5,mogpl4,,,
