num,oblig1,oblig2,oblig3,cons1,cons2,cons3,cons4,cons5
1,mlbda1,lrc3,,complex1,model1,mogpl1,,
2,mlbda1,lrc1,,il5,mapsi3,model1,,
3,mlbda1,lrc3,,il3,model1,mogpl1,,
4,mlbda1,lrc5,,mapsi5,model1,mogpl1,,
5,mlbda1,lrc1,,il3,mapsi5,model1,,
6,mlbda4,lrc4,,il3,mapsi1,mogpl2,,
7,mlbda3,lrc1,,il1,mapsi4,mogpl3,,
8,mlbda3,lrc1,,il5,mapsi4,mogpl4,,
9,mlbda3,lrc1,,il2,mapsi2,mogpl4,,
10,mlbda3,lrc1,,il1,mapsi2,mogpl3,,
11,mlbda4,lrc4,,il3,mapsi5,mogpl1,,
12,mlbda4,lrc2,,il1,mapsi4,mogpl3,,
13,mlbda1,lrc2,,il3,mapsi5,model1,,
14,mlbda4,lrc1,,il2,mapsi4,mogpl3,,
15,mlbda1,lrc5,,mapsi2,model1,mogpl1,,
16,mlbda3,lrc1,,il3,mapsi5,mogpl4,,
17,mlbda4,lrc2,,il2,mapsi3,mogpl2,,
18,mlbda2,lrc4,,bima1,mapsi5,mogpl1,,
19,mlbda1,lrc1,,il3,mapsi5,model1,,
20,mlbda1,lrc2,,complex1,mapsi5,model1,,
21,mlbda1,lrc3,,complex1,model1,mogpl3,,
22,mlbda4,lrc2,,il3,mapsi1,mogpl2,,
23,mlbda4,lrc4,,il5,mapsi3,mogpl1,,
24,mlbda3,lrc1,,bimaX,il5,mogplX,,
25,mlbda3,lrc1,,il2,mapsi3,mogpl3,,
26,mlbda3,lrc1,,il3,mapsi1,mogpl3,,
27,mlbda1,lrc5,,mapsi3,model1,mogpl1,,
28,mlbda4,lrc2,,il3,mapsi1,mogpl3,,
29,mlbda4,lrc4,,il1,mapsi2,mogpl1,,
30,mlbda2,lrc2,,bimaX,mapsi5,mogplX,,
31,mlbda3,lrc2,,bima1,il1,mogpl2,,
32,mlbda1,lrc5,,mapsi3,model1,mogpl1,,
33,mlbda1,lrc2,,il3,mapsi5,model1,,
34,mlbda4,lrc4,,il5,mapsi3,mogpl1,,
35,mlbda1,lrc1,,il5,mapsi3,model1,,
36,mlbda4,lrc4,,il5,mapsi2,mogpl1,,
37,mlbda2,lrc1,,bimaX,mapsi1,mogplX,,
