num,oblig1,oblig2,oblig3,cons1,cons2,cons3,cons4,cons5
1,ares,rtel,,mogpl,pr,signal,,
2,ares,rtel,,archi1,noyau,pr,,
3,ares,rtel,,mogpl,pr,signal,,
4,ares,rtel,,archi1,noyau,signal,,
5,ares,rtel,,archi1,noyau,pr,,
6,ares,rtel,,archi1,complex,mogpl,,
7,ares,rtel,,mogpl,noyau,signal,,
8,ares,rtel,,mogpl,pr,signal,,
9,ares,rtel,,mogpl,pr,signal,,
10,ares,rtel,,archi1,mogpl,noyau,,
11,ares,rtel,,archi1,noyau,signal,,
12,ares,rtel,,archi1,mogpl,noyau,,
13,ares,rtel,,archi1,pr,signal,,
14,ares,rtel,,archi1,mogpl,signal,,
15,ares,rtel,,mogpl,noyau,signal,,
16,ares,rtel,,noyau,pr,signal,,
17,ares,rtel,,archi1,pr,signal,,
18,ares,rtel,,archi1,noyau,pr,,
19,ares,rtel,,noyau,pr,signal,,
20,ares,rtel,,archi1,noyau,signal,,
21,ares,rtel,,mogpl,noyau,signal,,
22,ares,rtel,,complex,mogpl,noyau,,
23,ares,rtel,,mogpl,noyau,signal,,
24,ares,rtel,,archi1,pr,signal,,
25,ares,rtel,,noyau,pr,signal,,
26,ares,rtel,,mogpl,noyau,pr,,
27,ares,rtel,,noyau,pr,signal,,
28,ares,rtel,,archi1,mogpl,pr,,
29,ares,rtel,,noyau,pr,signal,,
30,ares,rtel,,mogpl,noyau,signal,,
31,ares,rtel,,archi1,noyau,signal,,
32,ares,rtel,,noyau,pr,signal,,
33,ares,rtel,,noyau,pr,signal,,
34,ares,rtel,,archi1,pr,signal,,
35,ares,rtel,,archi1,mogpl,signal,,
36,ares,rtel,,mogpl,pr,signal,,
37,ares,rtel,,noyau,pr,signal,,
38,ares,rtel,,archi1,mogpl,pr,,
39,ares,rtel,,noyau,pr,signal,,
40,ares,rtel,,noyau,pr,signal,,
41,ares,rtel,,noyau,pr,signal,,
42,ares,rtel,,noyau,pr,signal,,
43,ares,rtel,,mogpl,noyau,signal,,
44,ares,rtel,,archi1,noyau,signal,,
45,ares,rtel,,noyau,pr,signal,,
46,ares,rtel,,archi1,mogpl,signal,,
47,ares,rtel,,archi1,mogpl,noyau,,
48,ares,rtel,,mogpl,noyau,pr,,
49,ares,rtel,,archi1,mogpl,pr,,
50,ares,rtel,,mogpl,noyau,signal,,
51,ares,rtel,,archi1,noyau,pr,,
