num,oblig1,oblig2,oblig3,cons1,cons2,cons3,cons4,cons5
1,ares,rtel,,mogpl,noyau,signal,,
2,ares,rtel,,algav,dlp,lrc,,
3,ares,rtel,,il,mogpl,pr,,
4,ares,rtel,,mogpl,pr,signal,,
5,ares,rtel,,archi1,noyau,pr,,
6,ares,rtel,,il,mlbda,mogpl,,
7,ares,rtel,,noyau,pr,signal,,
8,,,,il,pr,,,
9,,,,il,lrc,,,
10,ares,rtel,,il,lrc,mlbda,,
11,ares,rtel,,il,mogpl,signal,,
12,ares,rtel,,mogpl,noyau,pr,,
13,,,,il,signal,,,
14,ares,rtel,,dlp,lrc,mlbda,,
15,ares,rtel,,algav,dlp,mlbda,,
16,ares,rtel,,il,mlbda,noyau,,
17,ares,rtel,,archi1,noyau,signal,,
18,,,,dlp,il,signal,,
19,,,,archi1,il,signal,,
20,ares,rtel,,complex,noyau,pr,,
21,ares,rtel,,archi1,noyau,pr,,
22,,,,il,lrc,signal,,
23,ares,rtel,,archi1,noyau,signal,,
24,ares,rtel,,archi1,noyau,signal,,
25,ares,rtel,,algav,dlp,mogpl,,
26,ares,rtel,,archi1,noyau,signal,,
27,ares,rtel,,archi1,il,mogpl,,
28,ares,rtel,,noyau,pr,signal,,
29,,,,signal,,,,
30,ares,rtel,,mlbda,noyau,pr,,
31,ares,rtel,,mlbda,noyau,pr,,
32,,,,mlbda,mogpl,pr,,
33,ares,rtel,,archi1,pr,signal,,
34,ares,rtel,,lrc,mogpl,signal,,
35,ares,rtel,,bima,mogpl,noyau,,
36,ares,rtel,,archi1,pr,signal,,
37,ares,rtel,,archi1,noyau,signal,,
38,ares,rtel,,mogpl,noyau,pr,,
39,ares,rtel,,il,lrc,noyau,,
40,ares,rtel,,il,mlbda,mogpl,,
41,ares,rtel,,archi1,noyau,pr,,
42,ares,rtel,,mogpl,pr,signal,,
43,ares,rtel,,il,noyau,pr,,
44,ares,rtel,,complex,noyau,pr,,
45,ares,rtel,,bima,noyau,signal,,
46,ares,rtel,,complex,noyau,pr,,
47,ares,rtel,,il,mlbda,mogpl,,
48,ares,rtel,,noyau,pr,signal,,
49,ares,rtel,,archi1,pr,signal,,
50,ares,rtel,,mlbda,mogpl,noyau,,
51,ares,rtel,,archi1,noyau,signal,,
